Predicting ICU length of stay among patients with alcohol-associated liver disease
…
## who are those with over 24hrs of ED length of stay?
aldNonLT_icu|>
  filter(EDlos>1440, na.rm=TRUE)|> #n=78
  select(subject_id, hadm_id, stay_id, EDlos)

# A tibble: 78 × 4
   subject_id  hadm_id  stay_id EDlos
        <dbl>    <dbl>    <dbl> <dbl>
 1   10006441 24120560 37240744  1555
 2   10122346 23392196 32665794  1472
 3   10271044 25590216 31542465  1482
 4   10509845 29943903 36885223  1736
 5   11067921 29266460 37081887  1513
 6   11164952 24680477 30058643  1722
 7   11194776 25081450 38337246  2971
 8   11402251 22647855 36469596  1774
 9   11693201 22256066 37553673  1847
10   11802081 28672604 39609823  1768
# ℹ 68 more rows
…
## who are those with over 35 breaths/min or under 8 breaths/min?
aldNonLT_icu|>
  filter(value_RR>35)|> #n=105
  select(subject_id, hadm_id, stay_id, value_RR)

# A tibble: 105 × 4
   subject_id  hadm_id  stay_id value_RR
        <dbl>    <dbl>    <dbl>    <dbl>
 1   10072153 21253864 34751092       41
 2   10161722 23515798 37337185       44
 3   10164094 21266699 30124066       37
 4   10246670 21115828 32368059       62
 5   10284497 23736151 30848777       38
 6   10354450 29591537 35085974       39
 7   10486342 24916410 35642150       37
 8   10528589 22414279 34835242       38
 9   10623984 20233887 33513228       40
10   10677466 23769123 32421099       36
# ℹ 95 more rows

aldNonLT_icu|>
  filter(value_RR<8)|> #n=24
  select(subject_id, hadm_id, stay_id, value_RR)

# A tibble: 24 × 4
   subject_id  hadm_id  stay_id value_RR
        <dbl>    <dbl>    <dbl>    <dbl>
 1   10809832 20695882 39219739        0
 2   11343195 21929008 38712927        0
 3   11343195 26806880 35331460        5
 4   11637705 21137019 33102129        5
 5   11789279 23757125 34998759        0
 6   12336934 27810427 34921081        0
 7   13444425 23135344 32646061        6
 8   15101183 26389834 31926891        6
 9   15949525 22830637 37326675        6
10   16536220 24609973 39500638        7
# ℹ 14 more rows
…
## who are those with HR > 140 bpm or HR <40 bpm?
aldNonLT_icu|>
  filter(value_HR>140)|> #n=92
  select(subject_id, hadm_id, stay_id, value_HR) #10219906 has a HR of 8400 ... when referring to his other V/S, this seems to be a typo for 84 

# A tibble: 92 × 4
   subject_id  hadm_id  stay_id value_HR
        <dbl>    <dbl>    <dbl>    <dbl>
 1   10122346 25026378 36597975      141
 2   10219906 26993822 33677583     8400
 3   10312652 24130729 33435189      151
 4   10398981 28167602 34166660      142
 5   10400024 29667100 32539832      158
 6   10430539 25368688 36937902      142
 7   10504898 21109438 34217611      148
 8   10623984 20782365 31686910      142
 9   10702864 23206825 31297623      160
10   10708073 23310234 33969598      162
# ℹ 82 more rows
…
## who are those with NIBPm > 140 mmHg or NIBPm < 30 mmHg?
aldNonLT_icu|>
  filter(value_NIBPm>140)|> #n=28
  select(subject_id, hadm_id, stay_id, value_NIBPm) #19063358 has a NIBPm=6116 which was measured 15 minutes later at 69 mmHg

# A tibble: 28 × 4
   subject_id  hadm_id  stay_id value_NIBPm
        <dbl>    <dbl>    <dbl>       <dbl>
 1   10138206 29096936 33712680         161
 2   10504898 21109438 34217611         162
 3   10730662 23676947 35813232         143
 4   10749008 29317137 31431413         165
 5   10812044 25241879 30847475         154
 6   10860466 29664840 32364300         186
 7   11194776 27195361 34149316         156
 8   12021129 22248492 35032965         145
 9   12489419 20908680 39843122         150
10   12553113 21570112 33997173         146
# ℹ 18 more rows
…
## who are those with ABPm > 140mmHg or ABPm < 30mmHg?
aldNonLT_icu|>
  filter(value_ABPm>140)|> #n=XXX
  select(subject_id, hadm_id, stay_id, value_ABPm) # These will be recoded NAs and imputed with NIBPm values 

# A tibble: 40 × 4
   subject_id  hadm_id  stay_id value_ABPm
        <dbl>    <dbl>    <dbl>      <dbl>
 1   10233233 28174685 37636124        335
 2   10254956 21618706 33817343        206
 3   10452075 28206315 38011424        317
 4   10730662 23676947 35813232        160
 5   10944645 27849005 36261302        270
 6   11240116 21332084 32038591        292
 7   11367269 21916943 30272974        238
 8   11426728 22779410 35789061        313
 9   11581456 26439351 35368626        152
10   11953532 27795322 34718598        277
# ℹ 30 more rows

aldNonLT_icu|>
  filter(value_ABPm<30)|> #n=160
  select(subject_id, hadm_id, stay_id, value_ABPm) # These will be recoded NAs and imputed with NIBPm values 

# A tibble: 157 × 4
   subject_id  hadm_id  stay_id value_ABPm
        <dbl>    <dbl>    <dbl>      <dbl>
 1   10081375 22630474 37885860          0
 2   10109639 24559207 30877644          0
 3   10167212 20147637 30599145         -1
 4   10192651 24449860 36284462          0
 5   10236942 21834040 35201523        -11
 6   10237517 25842766 35756806          0
 7   10252795 21348633 31040016         22
 8   10504539 21379384 32329948         27
 9   10550799 29410506 30244029        -22
10   10819468 25635490 38948617         -1
# ℹ 147 more rows
…
## who are those outliers?
aldNonLT_icu|>
  filter(value_PLT>450)|> #n=80
  select(subject_id, hadm_id, stay_id, value_PLT)

# A tibble: 80 × 4
   subject_id  hadm_id  stay_id value_PLT
        <dbl>    <dbl>    <dbl>     <dbl>
 1   10007795 28477357 31921355       563
 2   10040984 25978343 36981610       550
 3   10219906 20532118 39271016       737
 4   10528589 22414279 34835242      1025
 5   10528589 22414279 39647318       579
 6   10528589 23413133 39955187       708
 7   10606611 23835483 30770361       527
 8   10606611 23835483 33896166       505
 9   10606611 23835483 33988280       473
10   10623984 27178557 39668164       643
# ℹ 70 more rows
…
## who are those with INR > 5?
aldNonLT_icu|>
  filter(value_INR>5)|> #n= 60
  select(subject_id, hadm_id, stay_id, value_INR)

# A tibble: 60 × 4
   subject_id  hadm_id  stay_id value_INR
        <dbl>    <dbl>    <dbl>     <dbl>
 1   10055361 21240921 37176427      5.7 
 2   10249699 24955103 34378808      6.5 
 3   10647753 22082025 33194423      5.45
 4   11173189 29300059 31786915      6.9 
 5   11204801 29661242 38793590      7.2 
 6   11240116 21332084 38175053      5.8 
 7   11473436 23993672 37986724      6.1 
 8   11919067 27161351 33584067      6   
 9   11984393 29519094 37935316      8.9 
10   12193932 21076763 30025720     14.8 
# ℹ 50 more rows
…
## who are those with Cr > 5?
aldNonLT_icu|>
  filter(value_Cr>5)|> #n= 212
  select(subject_id, hadm_id, stay_id, value_Cr)

# A tibble: 212 × 4
   subject_id  hadm_id  stay_id value_Cr
        <dbl>    <dbl>    <dbl>    <dbl>
 1   10009766 21037658 35265231      8.7
 2   10039708 24928679 37323533      7.5
 3   10039708 25133749 38574326      7.4
 4   10039708 25410190 31142025      7.5
 5   10039708 28551587 36535245     12.6
 6   10072153 21253864 34751092      7  
 7   10080809 28544801 32579510      8.8
 8   10081375 22630474 37885860      5.6
 9   10161722 23515798 37337185      6  
10   10172862 29086498 38853861      6.5
# ℹ 202 more rows
…
## who are those with BUN > 75 mg/dL and BUN < 7mg/dL?
aldNonLT_icu|>
  filter(value_BUN>75)|> #n=309
  select(subject_id, hadm_id, stay_id, value_BUN)

# A tibble: 309 × 4
   subject_id  hadm_id  stay_id value_BUN
        <dbl>    <dbl>    <dbl>     <dbl>
 1   10011427 20219031 34146568        81
 2   10011427 22216667 33630048       141
 3   10039708 23819016 38559363        85
 4   10040808 22682260 36280081        78
 5   10080809 28544801 32579510       102
 6   10081375 22630474 37885860       115
 7   10132611 28996766 31179345       116
 8   10138206 29096936 33712680       106
 9   10161722 23515798 31219818        83
10   10233233 28174685 37636124       132
# ℹ 299 more rows

aldNonLT_icu|>
  filter(value_BUN<7)|> #n=401
  select(subject_id, hadm_id, stay_id, value_BUN)

# A tibble: 401 × 4
   subject_id  hadm_id  stay_id value_BUN
        <dbl>    <dbl>    <dbl>     <dbl>
 1   10005606 29646384 38740124         4
 2   10076263 25634900 35787104         5
 3   10100811 20879582 38258243         4
 4   10149179 24863916 37069259         4
 5   10167212 20147637 30599145         5
 6   10275551 29989089 38701565         5
 7   10281589 21069727 35910959         5
 8   10281589 21274326 32623618         5
 9   10283047 29932100 30219541         5
10   10286972 21106212 35884839         6
# ℹ 391 more rows
…
## who are those with K > 7 mEq/L?
aldNonLT_icu|>
  filter(value_K_serum>7)|> #n= 41
  select(subject_id, hadm_id, stay_id, value_K_serum) # 19186835 has a K level of 9mEq/L, but subsequent lab results show a decreasing trend that remains critically elevated, indicating accurate data

# A tibble: 41 × 4
   subject_id  hadm_id  stay_id value_K_serum
        <dbl>    <dbl>    <dbl>         <dbl>
 1   10275551 29989089 38701565           7.5
 2   10308247 29744573 37220986           7.7
 3   10760122 28363092 31751827           7.4
 4   11093194 27135482 37065914           7.7
 5   11551927 29654387 38006137           7.1
 6   11787740 24699370 31604150           7.1
 7   12077904 25654632 35309993           7.2
 8   12083759 21331053 34752926           7.6
 9   12210501 25092409 39050266           7.1
10   12357364 24832346 35893679           7.4
# ℹ 31 more rows
…
## who are those with HCO3 > 30 and HCO3 < 10?
aldNonLT_icu|>
  filter(value_HCO3_serum>30)|> #n= 128
  select(subject_id, hadm_id, stay_id, value_HCO3_serum)

# A tibble: 128 × 4
   subject_id  hadm_id  stay_id value_HCO3_serum
        <dbl>    <dbl>    <dbl>            <dbl>
 1   10002114 27793700 34672098               41
 2   10295020 24995523 39726152               31
 3   10321613 27206262 32607195               31
 4   10403918 28271389 37869133               33
 5   10493113 25281518 35798535               34
 6   10606611 23835483 33896166               40
 7   10790116 25114987 39567041               32
 8   10806305 22042362 39666171               33
 9   10816781 23001465 33602344               39
10   10819468 29619811 34436226               31
# ℹ 118 more rows

aldNonLT_icu|>
  filter(value_HCO3_serum<10)|> #n= 103
  select(subject_id, hadm_id, stay_id, value_HCO3_serum)

# A tibble: 103 × 4
   subject_id  hadm_id  stay_id value_HCO3_serum
        <dbl>    <dbl>    <dbl>            <dbl>
 1   10131638 23938729 32631424                9
 2   10161722 23515798 31219818                9
 3   10164094 21266699 30124066                6
 4   10192651 24449860 36284462                5
 5   10236942 21834040 35201523                9
 6   10249699 24955103 34378808                6
 7   10339946 21972428 33940719                8
 8   10422072 22751922 32390170                7
 9   10647753 22082025 33194423                9
10   10656173 25753489 38874599                9
# ℹ 93 more rows
…
## who are those with BST > 400?
aldNonLT_icu|>
  filter(value_Glucose_serum>300)|> #n= 127
  select(subject_id, hadm_id, stay_id, value_Glucose_serum)

# A tibble: 127 × 4
   subject_id  hadm_id  stay_id value_Glucose_serum
        <dbl>    <dbl>    <dbl>               <dbl>
 1   10014354 27487226 38017367                 520
 2   10295020 24995523 36479916                 302
 3   10310622 23600391 32378865                 342
 4   10354450 29591537 35085974                 305
 5   10407305 26389461 30292228                 326
 6   10408681 26770052 35973102                 322
 7   10669855 22935547 38144903                 523
 8   10701573 21894314 38376013                 365
 9   10772987 24632177 33598579                 459
10   10840747 26572612 36963664                 602
# ℹ 117 more rows
…
## who are those with AST > 5000 U/L?
aldNonLT_icu|>
  filter(value_AST>5000)|> #n=33
  select(subject_id, hadm_id, stay_id, value_AST) # when referring to their subsequent AST labs, these values appear accurate

# A tibble: 33 × 4
   subject_id  hadm_id  stay_id value_AST
        <dbl>    <dbl>    <dbl>     <dbl>
 1   10167878 22205493 39254322      5532
 2   10405185 24538696 32767831      9200
 3   10442603 23644640 31663173     13170
 4   10734449 27407861 39081848      8886
 5   11204801 22142532 39513153      7700
 6   11204801 29661242 38793590     17160
 7   11404178 23919332 31798413      5018
 8   11608096 21581611 35440473      9505
 9   11926708 22514839 35103292     28275
10   12210501 25092409 39050266      5531
# ℹ 23 more rows
…
## who are those with ALT > 1000 U/L?
aldNonLT_icu|>
  filter(value_ALT>1000)|> #n=61
  select(subject_id, hadm_id, stay_id, value_ALT) # When referring to their subsequent ALT labs, these values appear accurate

# A tibble: 61 × 4
   subject_id  hadm_id  stay_id value_ALT
        <dbl>    <dbl>    <dbl>     <dbl>
 1   10014354 27487226 38017367      2758
 2   10163709 29550274 34670508      1773
 3   10167878 22205493 39254322      2857
 4   10199751 24331841 39513609      2287
 5   10405185 24538696 32767831      2416
 6   10442603 23644640 31663173      1624
 7   10493113 25281518 35798535      1083
 8   10734449 27407861 39081848      3437
 9   11062577 20459652 39637626      1042
10   11204801 22142532 39513153      8245
# ℹ 51 more rows
…
## prediction on unseen testing data
icu.4days_lr_pred_test<-bind_cols(truth=icu.4days_test$los_icu4, predict(lr_class_fit, icu.4days_test), predict(lr_class_fit, icu.4days_test, type="prob"))
icu.4days_lr_pred_test

# A tibble: 848 × 4
   truth          .pred_class    `.pred_≧ 4days in ICU` `.pred_< 4days in ICU`
   <fct>          <fct>                           <dbl>                  <dbl>
 1 ≧ 4days in ICU < 4days in ICU                 0.396                   0.604
 2 ≧ 4days in ICU < 4days in ICU                 0.138                   0.862
 3 < 4days in ICU < 4days in ICU                 0.215                   0.785
 4 < 4days in ICU < 4days in ICU                 0.385                   0.615
 5 ≧ 4days in ICU < 4days in ICU                 0.397                   0.603
 6 < 4days in ICU < 4days in ICU                 0.223                   0.777
 7 < 4days in ICU < 4days in ICU                 0.0809                  0.919
 8 < 4days in ICU < 4days in ICU                 0.0869                  0.913
 9 < 4days in ICU < 4days in ICU                 0.177                   0.823
10 < 4days in ICU < 4days in ICU                 0.0822                  0.918
# ℹ 838 more rows
…
## prediction on unseen testing data
icu.4days_rf_pred_test<-bind_cols(truth=icu.4days_test$los_icu4, predict(rf_fit, icu.4days_test), predict(rf_fit, icu.4days_test, type="prob"))
icu.4days_rf_pred_test

# A tibble: 848 × 4
   truth          .pred_class    `.pred_≧ 4days in ICU` `.pred_< 4days in ICU`
   <fct>          <fct>                           <dbl>                  <dbl>
 1 ≧ 4days in ICU < 4days in ICU                  0.358                  0.642
 2 ≧ 4days in ICU < 4days in ICU                  0.188                  0.812
 3 < 4days in ICU < 4days in ICU                  0.338                  0.662
 4 < 4days in ICU < 4days in ICU                  0.388                  0.612
 5 ≧ 4days in ICU < 4days in ICU                  0.46                   0.54 
 6 < 4days in ICU < 4days in ICU                  0.12                   0.88 
 7 < 4days in ICU < 4days in ICU                  0.032                  0.968
 8 < 4days in ICU < 4days in ICU                  0.032                  0.968
 9 < 4days in ICU < 4days in ICU                  0.1                    0.9  
10 < 4days in ICU < 4days in ICU                  0.016                  0.984
# ℹ 838 more rows
…
## prediction on unseen testing data
icu.4days_xgb_pred_test<-bind_cols(truth = icu.4days_test$los_icu4, predict(bt_fit, icu.4days_test), predict(bt_fit, icu.4days_test, type = "prob"))
icu.4days_xgb_pred_test

# A tibble: 848 × 4
   truth          .pred_class    `.pred_≧ 4days in ICU` `.pred_< 4days in ICU`
   <fct>          <fct>                           <dbl>                  <dbl>
 1 ≧ 4days in ICU < 4days in ICU               0.0790                    0.921
 2 ≧ 4days in ICU < 4days in ICU               0.0128                    0.987
 3 < 4days in ICU < 4days in ICU               0.0114                    0.989
 4 < 4days in ICU ≧ 4days in ICU               0.550                     0.450
 5 ≧ 4days in ICU ≧ 4days in ICU               0.690                     0.310
 6 < 4days in ICU < 4days in ICU               0.000616                  0.999
 7 < 4days in ICU < 4days in ICU               0.000125                  1.00 
 8 < 4days in ICU < 4days in ICU               0.000283                  1.00 
 9 < 4days in ICU < 4days in ICU               0.000100                  1.00 
10 < 4days in ICU < 4days in ICU               0.000124                  1.00 
# ℹ 838 more rows
…
